<?xml version="1.0" encoding="UTF-8" standalone="no"?>
<svg
   xmlns:osb="http://www.openswatchbook.org/uri/2009/osb"
   xmlns:dc="http://purl.org/dc/elements/1.1/"
   xmlns:cc="http://creativecommons.org/ns#"
   xmlns:rdf="http://www.w3.org/1999/02/22-rdf-syntax-ns#"
   xmlns:svg="http://www.w3.org/2000/svg"
   xmlns="http://www.w3.org/2000/svg"
   xmlns:xlink="http://www.w3.org/1999/xlink"
   xmlns:sodipodi="http://sodipodi.sourceforge.net/DTD/sodipodi-0.dtd"
   xmlns:inkscape="http://www.inkscape.org/namespaces/inkscape"
   inkscape:export-ydpi="400"
   inkscape:export-xdpi="400"
   inkscape:export-filename="/home/kordax/Projects/internal/kordasoft-php/public_html/img/header/logo_180x30.png"
   inkscape:version="1.0.2 (e86c870879, 2021-01-15)"
   sodipodi:docname="logo_180x30_valoru.svg"
   id="HeaderLogo"
   version="1.1"
   viewBox="0 0 47.624996 7.9375"
   height="30"
   width="180">
  <defs
     id="defs14908">
    <linearGradient
       inkscape:collect="always"
       id="linearGradient13333">
      <stop
         style="stop-color:#ffd016;stop-opacity:1"
         offset="0"
         id="stop13329" />
      <stop
         style="stop-color:#f77e00;stop-opacity:1"
         offset="1"
         id="stop13331" />
    </linearGradient>
    <linearGradient
       id="linearGradient24267"
       osb:paint="solid">
      <stop
         style="stop-color:#ffffff;stop-opacity:1;"
         offset="0"
         id="stop24265" />
    </linearGradient>
    <linearGradient
       inkscape:collect="always"
       id="linearGradient22793">
      <stop
         style="stop-color:#ff6600;stop-opacity:1;"
         offset="0"
         id="stop22789" />
      <stop
         style="stop-color:#ffffff;stop-opacity:0.75490195"
         offset="1"
         id="stop22791" />
    </linearGradient>
    <linearGradient
       inkscape:collect="always"
       xlink:href="#linearGradient22793"
       id="linearGradient22795"
       x1="1.2294315"
       y1="288.53329"
       x2="63.858067"
       y2="288.53329"
       gradientUnits="userSpaceOnUse" />
    <linearGradient
       inkscape:collect="always"
       xlink:href="#linearGradient24267"
       id="linearGradient24269"
       x1="1.3088065"
       y1="288.53329"
       x2="63.778694"
       y2="288.53329"
       gradientUnits="userSpaceOnUse" />
    <linearGradient
       gradientTransform="translate(0.02097244,8.3871384)"
       inkscape:collect="always"
       xlink:href="#linearGradient12262"
       id="linearGradient12264"
       x1="231.06824"
       y1="204.48508"
       x2="231.06824"
       y2="151.14809"
       gradientUnits="userSpaceOnUse" />
    <linearGradient
       inkscape:collect="always"
       id="linearGradient12262">
      <stop
         style="stop-color:#e13400;stop-opacity:1"
         offset="0"
         id="stop12258" />
      <stop
         style="stop-color:#ff8200;stop-opacity:1"
         offset="1"
         id="stop12260" />
    </linearGradient>
    <radialGradient
       inkscape:collect="always"
       xlink:href="#linearGradient13333"
       id="radialGradient13337"
       cx="-4.5602856"
       cy="299.95389"
       fx="-4.5602856"
       fy="299.95389"
       r="3.2573473"
       gradientTransform="matrix(1,0,0,0.95585964,6.827195,15.815034)"
       gradientUnits="userSpaceOnUse" />
  </defs>
  <sodipodi:namedview
     id="base"
     pagecolor="#333333"
     bordercolor="#666666"
     borderopacity="1.0"
     inkscape:pageopacity="0"
     inkscape:pageshadow="2"
     inkscape:zoom="4"
     inkscape:cx="60.833289"
     inkscape:cy="21.401987"
     inkscape:document-units="mm"
     inkscape:current-layer="layer3"
     showgrid="false"
     inkscape:snap-bbox="true"
     inkscape:bbox-nodes="false"
     inkscape:bbox-paths="true"
     inkscape:snap-bbox-edge-midpoints="false"
     inkscape:snap-bbox-midpoints="false"
     inkscape:object-paths="false"
     inkscape:snap-intersection-paths="false"
     inkscape:snap-smooth-nodes="false"
     inkscape:snap-midpoints="false"
     inkscape:snap-object-midpoints="false"
     inkscape:snap-center="false"
     inkscape:window-width="1920"
     inkscape:window-height="1015"
     inkscape:window-x="0"
     inkscape:window-y="0"
     inkscape:window-maximized="1"
     inkscape:pagecheckerboard="false"
     units="px"
     inkscape:snap-text-baseline="true"
     inkscape:snap-page="true"
     inkscape:object-nodes="false"
     inkscape:snap-others="false"
     inkscape:snap-nodes="false"
     inkscape:snap-to-guides="false"
     inkscape:document-rotation="0" />
  <metadata
     id="metadata14911">
    <rdf:RDF>
      <cc:Work
         rdf:about="">
        <dc:format>image/svg+xml</dc:format>
        <dc:type
           rdf:resource="http://purl.org/dc/dcmitype/StillImage" />
        <dc:title></dc:title>
      </cc:Work>
    </rdf:RDF>
  </metadata>
  <g
     inkscape:label="Layer 1"
     inkscape:groupmode="layer"
     id="layer1"
     transform="translate(0,-287.47499)">
    <rect
       style="opacity:0.96;fill:none;fill-opacity:1;fill-rule:nonzero;stroke:#2d2d2d;stroke-width:0.0564166;stroke-miterlimit:4;stroke-dasharray:none;stroke-opacity:1;paint-order:normal"
       id="rect15540"
       width="4.6316322e-07"
       height="4.6316322e-07"
       x="14.574126"
       y="284.08533" />
  </g>
  <g
     inkscape:groupmode="layer"
     id="layer5"
     inkscape:label="Orange Leaves"
     transform="translate(0,-7.4083334)" />
  <g
     inkscape:groupmode="layer"
     id="layer4"
     inkscape:label="Orange"
     transform="translate(0,-7.4083334)" />
  <g
     inkscape:groupmode="layer"
     id="layer3"
     inkscape:label="Layer 2"
     transform="translate(0,-7.4083334)">
    <path
       id="path22801"
       style="font-style:normal;font-variant:normal;font-weight:800;font-stretch:normal;font-size:10.5833px;line-height:1.25;font-family:Cantarell;-inkscape-font-specification:'Cantarell Ultra-Bold';fill:#b1d1e8;fill-opacity:1;stroke-width:0.264583"
       d="m 2.4288751,7.70446 1.0474807,2.96726 h 1.960088 L 4.5667288,7.70446 Z m 5.2704787,0 -0.930175,2.96726 h 1.768884 l 1.05575,-2.96726 z m -3.724837,4.37802 1.047482,2.96726 h 1.958019 l 1.05575,-2.96726 h -1.70894 l -0.246496,0.78704 -0.230477,-0.78704 z" />
    <path
       d="m 9.5092598,15.049488 h 1.9579112 l 0.444498,-1.513412 h 2.561159 l 0.476248,1.513412 h 2.02141 L 14.462244,7.7046786 h -2.338909 z m 2.8998242,-3.164406 0.761998,-2.5611587 0.793747,2.5611587 z"
       style="font-style:normal;font-variant:normal;font-weight:800;font-stretch:normal;font-size:10.5833px;line-height:1.25;font-family:Cantarell;-inkscape-font-specification:'Cantarell Ultra-Bold';fill:#ffffff;fill-opacity:1;stroke-width:0.264583"
       id="path22803" />
    <path
       d="m 17.647818,15.049488 h 4.868318 V 13.430243 H 19.478729 V 7.7046786 h -1.830911 z"
       style="font-style:normal;font-variant:normal;font-weight:800;font-stretch:normal;font-size:10.5833px;line-height:1.25;font-family:Cantarell;-inkscape-font-specification:'Cantarell Ultra-Bold';fill:#ffffff;fill-opacity:1;stroke-width:0.264583"
       id="path22805" />
    <path
       d="m 26.865857,15.155321 c 2.296576,0 3.820571,-1.523995 3.820571,-3.820571 0,-2.2436593 -1.481662,-3.7359045 -3.704155,-3.7359045 -2.275409,0 -3.788821,1.5345785 -3.788821,3.8417375 0,2.233076 1.471078,3.714738 3.672405,3.714738 z m 0.116416,-1.608661 c -1.132413,0 -1.862661,-0.867831 -1.862661,-2.21191 0,-1.291162 0.687915,-2.127243 1.746245,-2.127243 1.153579,0 1.89441,0.878414 1.89441,2.233076 0,1.280579 -0.698497,2.106077 -1.777994,2.106077 z"
       style="font-style:normal;font-variant:normal;font-weight:800;font-stretch:normal;font-size:10.5833px;line-height:1.25;font-family:Cantarell;-inkscape-font-specification:'Cantarell Ultra-Bold';fill:#ffffff;fill-opacity:1;stroke-width:0.264583"
       id="path22807" />
    <path
       d="m 31.82942,15.049488 h 1.830911 v -2.508242 h 0.814914 l 1.428746,2.508242 h 2.201326 l -1.830911,-2.889241 c 0.825498,-0.444498 1.322913,-1.238246 1.322913,-2.2330758 0,-1.4181618 -1.015997,-2.2224927 -2.741075,-2.2224927 H 31.82942 Z m 1.830911,-4.063987 V 9.3027568 h 0.941914 c 0.687914,0 1.09008,0.3280825 1.09008,0.8784132 0,0.497415 -0.296333,0.804331 -0.836081,0.804331 z"
       style="font-style:normal;font-variant:normal;font-weight:800;font-stretch:normal;font-size:10.5833px;line-height:1.25;font-family:Cantarell;-inkscape-font-specification:'Cantarell Ultra-Bold';fill:#ffffff;fill-opacity:1;stroke-width:0.264583"
       id="path22809" />
    <path
       d="m 41.904718,15.102405 c 2.000244,0 3.291407,-1.238246 3.291407,-3.14324 V 7.6517621 H 43.38638 v 4.5190689 c 0,0.846664 -0.476248,1.344079 -1.280579,1.344079 -0.941914,0 -1.492245,-0.582081 -1.492245,-1.555745 V 7.6517621 h -1.830911 v 4.4132359 c 0,1.894411 1.174746,3.037407 3.122073,3.037407 z"
       style="font-style:normal;font-variant:normal;font-weight:800;font-stretch:normal;font-size:10.5833px;line-height:1.25;font-family:Cantarell;-inkscape-font-specification:'Cantarell Ultra-Bold';fill:#ffffff;fill-opacity:1;stroke-width:0.264583"
       id="path22811" />
  </g>
</svg>
